systolic_array/NxN_matmul/sim/8x8.vcd
$date
	Tue Jan 13 12:38:35 2026
$end
$version
	Icarus Verilog
$end
$timescale
	1ps
$end
$scope module tb_NxN_systolic_array_8x8 $end
$var reg 1 ! clear $end
$var reg 1 " clk $end
$var reg 1 # rst $end
$var integer 32 $ c [31:0] $end
$var integer 32 % cycle [31:0] $end
$var integer 32 & errors [31:0] $end
$var integer 32 ' i [31:0] $end
$var integer 32 ( j [31:0] $end
$var integer 32 ) k [31:0] $end
$var integer 32 * r [31:0] $end
$var integer 32 + t [31:0] $end
$scope module dut $end
$var wire 1 ! clear $end
$var wire 1 " clk $end
$var wire 1 # rst $end
$scope begin ROW[0] $end
$scope begin COL[0] $end
$scope module PE $end
$var wire 1 ! clear $end
$var wire 1 " clk $end
$var wire 1 # rst $end
$var wire 8 , b_in [7:0] $end
$var wire 8 - a_in [7:0] $end
$var reg 8 . a_out [7:0] $end
$var reg 8 / b_out [7:0] $end
$var reg 32 0 c [31:0] $end
$upscope $end
$upscope $end
$scope begin COL[1] $end
$scope module PE $end
$var wire 8 1 a_in [7:0] $end
$var wire 1 ! clear $end
$var wire 1 " clk $end
$var wire 1 # rst $end
$var wire 8 2 b_in [7:0] $end
$var reg 8 3 a_out [7:0] $end
$var reg 8 4 b_out [7:0] $end
$var reg 32 5 c [31:0] $end
$upscope $end
$upscope $end
$scope begin COL[2] $end
$scope module PE $end
$var wire 8 6 a_in [7:0] $end
$var wire 1 ! clear $end
$var wire 1 " clk $end
$var wire 1 # rst $end
$var wire 8 7 b_in [7:0] $end
$var reg 8 8 a_out [7:0] $end
$var reg 8 9 b_out [7:0] $end
$var reg 32 : c [31:0] $end
$upscope $end
$upscope $end
$scope begin COL[3] $end
$scope module PE $end
$var wire 8 ; a_in [7:0] $end
$var wire 1 ! clear $end
$var wire 1 " clk $end
$var wire 1 # rst $end
$var wire 8 < b_in [7:0] $end
$var reg 8 = a_out [7:0] $end
$var reg 8 > b_out [7:0] $end
$var reg 32 ? c [31:0] $end
$upscope $end
$upscope $end
$scope begin COL[4] $end
$scope module PE $end
$var wire 8 @ a_in [7:0] $end
$var wire 1 ! clear $end
$var wire 1 " clk $end
$var wire 1 # rst $end
$var wire 8 A b_in [7:0] $end
$var reg 8 B a_out [7:0] $end
$var reg 8 C b_out [7:0] $end
$var reg 32 D c [31:0] $end
$upscope $end
$upscope $end
$scope begin COL[5] $end
$scope module PE $end
$var wire 8 E a_in [7:0] $end
$var wire 1 ! clear $end
$var wire 1 " clk $end
$var wire 1 # rst $end
$var wire 8 F b_in [7:0] $end
$var reg 8 G a_out [7:0] $end
$var reg 8 H b_out [7:0] $end
$var reg 32 I c [31:0] $end
$upscope $end
$upscope $end
$scope begin COL[6] $end
$scope module PE $end
$var wire 8 J a_in [7:0] $end
$var wire 1 ! clear $end
$var wire 1 " clk $end
$var wire 1 # rst $end
$var wire 8 K b_in [7:0] $end
$var reg 8 L a_out [7:0] $end
$var reg 8 M b_out [7:0] $end
$var reg 32 N c [31:0] $end
$upscope $end
$upscope $end
$scope begin COL[7] $end
$scope module PE $end
$var wire 8 O a_in [7:0] $end
$var wire 1 ! clear $end
$var wire 1 " clk $end
$var wire 1 # rst $end
$var wire 8 P b_in [7:0] $end
$var reg 8 Q a_out [7:0] $end
$var reg 8 R b_out [7:0] $end
$var reg 32 S c [31:0] $end
$upscope $end
$upscope $end
$upscope $end
$scope begin ROW[1] $end
$scope begin COL[0] $end
$scope module PE $end
$var wire 8 T b_in [7:0] $end
$var wire 1 ! clear $end
$var wire 1 " clk $end
$var wire 1 # rst $end
$var wire 8 U a_in [7:0] $end
$var reg 8 V a_out [7:0] $end
$var reg 8 W b_out [7:0] $end
$var reg 32 X c [31:0] $end
$upscope $end
$upscope $end
$scope begin COL[1] $end
$scope module PE $end
$var wire 8 Y a_in [7:0] $end
$var wire 8 Z b_in [7:0] $end
$var wire 1 ! clear $end
$var wire 1 " clk $end
$var wire 1 # rst $end
$var reg 8 [ a_out [7:0] $end
$var reg 8 \ b_out [7:0] $end
$var reg 32 ] c [31:0] $end
$upscope $end
$upscope $end
$scope begin COL[2] $end
$scope module PE $end
$var wire 8 ^ a_in [7:0] $end
$var wire 8 _ b_in [7:0] $end
$var wire 1 ! clear $end
$var wire 1 " clk $end
$var wire 1 # rst $end
$var reg 8 ` a_out [7:0] $end
$var reg 8 a b_out [7:0] $end
$var reg 32 b c [31:0] $end
$upscope $end
$upscope $end
$scope begin COL[3] $end
$scope module PE $end
$var wire 8 c a_in [7:0] $end
$var wire 8 d b_in [7:0] $end
$var wire 1 ! clear $end
$var wire 1 " clk $end
$var wire 1 # rst $end
$var reg 8 e a_out [7:0] $end
$var reg 8 f b_out [7:0] $end
$var reg 32 g c [31:0] $end
$upscope $end
$upscope $end
$scope begin COL[4] $end
$scope module PE $end
$var wire 8 h a_in [7:0] $end
$var wire 8 i b_in [7:0] $end
$var wire 1 ! clear $end
$var wire 1 " clk $end
$var wire 1 # rst $end
$var reg 8 j a_out [7:0] $end
$var reg 8 k b_out [7:0] $end
$var reg 32 l c [31:0] $end
$upscope $end
$upscope $end
$scope begin COL[5] $end
$scope module PE $end
$var wire 8 m a_in [7:0] $end
$var wire 8 n b_in [7:0] $end
$var wire 1 ! clear $end
$var wire 1 " clk $end
$var wire 1 # rst $end
$var reg 8 o a_out [7:0] $end
$var reg 8 p b_out [7:0] $end
$var reg 32 q c [31:0] $end
$upscope $end
$upscope $end
$scope begin COL[6] $end
$scope module PE $end
$var wire 8 r a_in [7:0] $end
$var wire 8 s b_in [7:0] $end
$var wire 1 ! clear $end
$var wire 1 " clk $end
$var wire 1 # rst $end
$var reg 8 t a_out [7:0] $end
$var reg 8 u b_out [7:0] $end
$var reg 32 v c [31:0] $end
$upscope $end
$upscope $end
$scope begin COL[7] $end
$scope module PE $end
$var wire 8 w a_in [7:0] $end
$var wire 8 x b_in [7:0] $end
$var wire 1 ! clear $end
$var wire 1 " clk $end
$var wire 1 # rst $end
$var reg 8 y a_out [7:0] $end
$var reg 8 z b_out [7:0] $end
$var reg 32 { c [31:0] $end
$upscope $end
$upscope $end
$upscope $end
$scope begin ROW[2] $end
$scope begin COL[0] $end
$scope module PE $end
$var wire 8 | b_in [7:0] $end
$var wire 1 ! clear $end
$var wire 1 " clk $end
$var wire 1 # rst $end
$var wire 8 } a_in [7:0] $end
$var reg 8 ~ a_out [7:0] $end
$var reg 8 !" b_out [7:0] $end
$var reg 32 "" c [31:0] $end
$upscope $end
$upscope $end
$scope begin COL[1] $end
$scope module PE $end
$var wire 8 #" a_in [7:0] $end
$var wire 8 $" b_in [7:0] $end
$var wire 1 ! clear $end
$var wire 1 " clk $end
$var wire 1 # rst $end
$var reg 8 %" a_out [7:0] $end
$var reg 8 &" b_out [7:0] $end
$var reg 32 '" c [31:0] $end
$upscope $end
$upscope $end
$scope begin COL[2] $end
$scope module PE $end
$var wire 8 (" a_in [7:0] $end
$var wire 8 )" b_in [7:0] $end
$var wire 1 ! clear $end
$var wire 1 " clk $end
$var wire 1 # rst $end
$var reg 8 *" a_out [7:0] $end
$var reg 8 +" b_out [7:0] $end
$var reg 32 ," c [31:0] $end
$upscope $end
$upscope $end
$scope begin COL[3] $end
$scope module PE $end
$var wire 8 -" a_in [7:0] $end
$var wire 8 ." b_in [7:0] $end
$var wire 1 ! clear $end
$var wire 1 " clk $end
$var wire 1 # rst $end
$var reg 8 /" a_out [7:0] $end
$var reg 8 0" b_out [7:0] $end
$var reg 32 1" c [31:0] $end
$upscope $end
$upscope $end
$scope begin COL[4] $end
$scope module PE $end
$var wire 8 2" a_in [7:0] $end
$var wire 8 3" b_in [7:0] $end
$var wire 1 ! clear $end
$var wire 1 " clk $end
$var wire 1 # rst $end
$var reg 8 4" a_out [7:0] $end
$var reg 8 5" b_out [7:0] $end
$var reg 32 6" c [31:0] $end
$upscope $end
$upscope $end
$scope begin COL[5] $end
$scope module PE $end
$var wire 8 7" a_in [7:0] $end
$var wire 8 8" b_in [7:0] $end
$var wire 1 ! clear $end
$var wire 1 " clk $end
$var wire 1 # rst $end
$var reg 8 9" a_out [7:0] $end
$var reg 8 :" b_out [7:0] $end
$var reg 32 ;" c [31:0] $end
$upscope $end
$upscope $end
$scope begin COL[6] $end
$scope module PE $end
$var wire 8 <" a_in [7:0] $end
$var wire 8 =" b_in [7:0] $end
$var wire 1 ! clear $end
$var wire 1 " clk $end
$var wire 1 # rst $end
$var reg 8 >" a_out [7:0] $end
$var reg 8 ?" b_out [7:0] $end
$var reg 32 @" c [31:0] $end
$upscope $end
$upscope $end
$scope begin COL[7] $end
$scope module PE $end
$var wire 8 A" a_in [7:0] $end
$var wire 8 B" b_in [7:0] $end
$var wire 1 ! clear $end
$var wire 1 " clk $end
$var wire 1 # rst $end
$var reg 8 C" a_out [7:0] $end
$var reg 8 D" b_out [7:0] $end
$var reg 32 E" c [31:0] $end
$upscope $end
$upscope $end
$upscope $end
$scope begin ROW[3] $end
$scope begin COL[0] $end
$scope module PE $end
$var wire 8 F" b_in [7:0] $end
$var wire 1 ! clear $end
$var wire 1 " clk $end
$var wire 1 # rst $end
$var wire 8 G" a_in [7:0] $end
$var reg 8 H" a_out [7:0] $end
$var reg 8 I" b_out [7:0] $end
$var reg 32 J" c [31:0] $end
$upscope $end
$upscope $end
$scope begin COL[1] $end
$scope module PE $end
$var wire 8 K" a_in [7:0] $end
$var wire 8 L" b_in [7:0] $end
$var wire 1 ! clear $end
$var wire 1 " clk $end
$var wire 1 # rst $end
$var reg 8 M" a_out [7:0] $end
$var reg 8 N" b_out [7:0] $end
$var reg 32 O" c [31:0] $end
$upscope $end
$upscope $end
$scope begin COL[2] $end
$scope module PE $end
$var wire 8 P" a_in [7:0] $end
$var wire 8 Q" b_in [7:0] $end
$var wire 1 ! clear $end
$var wire 1 " clk $end
$var wire 1 # rst $end
$var reg 8 R" a_out [7:0] $end
$var reg 8 S" b_out [7:0] $end
$var reg 32 T" c [31:0] $end
$upscope $end
$upscope $end
$scope begin COL[3] $end
$scope module PE $end
$var wire 8 U" a_in [7:0] $end
$var wire 8 V" b_in [7:0] $end
$var wire 1 ! clear $end
$var wire 1 " clk $end
$var wire 1 # rst $end
$var reg 8 W" a_out [7:0] $end
$var reg 8 X" b_out [7:0] $end
$var reg 32 Y" c [31:0] $end
$upscope $end
$upscope $end
$scope begin COL[4] $end
$scope module PE $end
$var wire 8 Z" a_in [7:0] $end
$var wire 8 [" b_in [7:0] $end
$var wire 1 ! clear $end
$var wire 1 " clk $end
$var wire 1 # rst $end
$var reg 8 \" a_out [7:0] $end
$var reg 8 ]" b_out [7:0] $end
$var reg 32 ^" c [31:0] $end
$upscope $end
$upscope $end
$scope begin COL[5] $end
$scope module PE $end
$var wire 8 _" a_in [7:0] $end
$var wire 8 `" b_in [7:0] $end
$var wire 1 ! clear $end
$var wire 1 " clk $end
$var wire 1 # rst $end
$var reg 8 a" a_out [7:0] $end
$var reg 8 b" b_out [7:0] $end
$var reg 32 c" c [31:0] $end
$upscope $end
$upscope $end
$scope begin COL[6] $end
$scope module PE $end
$var wire 8 d" a_in [7:0] $end
$var wire 8 e" b_in [7:0] $end
$var wire 1 ! clear $end
$var wire 1 " clk $end
$var wire 1 # rst $end
$var reg 8 f" a_out [7:0] $end
$var reg 8 g" b_out [7:0] $end
$var reg 32 h" c [31:0] $end
$upscope $end
$upscope $end
$scope begin COL[7] $end
$scope module PE $end
$var wire 8 i" a_in [7:0] $end
$var wire 8 j" b_in [7:0] $end
$var wire 1 ! clear $end
$var wire 1 " clk $end
$var wire 1 # rst $end
$var reg 8 k" a_out [7:0] $end
$var reg 8 l" b_out [7:0] $end
$var reg 32 m" c [31:0] $end
$upscope $end
$upscope $end
$upscope $end
$scope begin ROW[4] $end
$scope begin COL[0] $end
$scope module PE $end
$var wire 8 n" b_in [7:0] $end
$var wire 1 ! clear $end
$var wire 1 " clk $end
$var wire 1 # rst $end
$var wire 8 o" a_in [7:0] $end
$var reg 8 p" a_out [7:0] $end
$var reg 8 q" b_out [7:0] $end
$var reg 32 r" c [31:0] $end
$upscope $end
$upscope $end
$scope begin COL[1] $end
$scope module PE $end
$var wire 8 s" a_in [7:0] $end
$var wire 8 t" b_in [7:0] $end
$var wire 1 ! clear $end
$var wire 1 " clk $end
$var wire 1 # rst $end
$var reg 8 u" a_out [7:0] $end
$var reg 8 v" b_out [7:0] $end
$var reg 32 w" c [31:0] $end
$upscope $end
$upscope $end
$scope begin COL[2] $end
$scope module PE $end
$var wire 8 x" a_in [7:0] $end
$var wire 8 y" b_in [7:0] $end
$var wire 1 ! clear $end
$var wire 1 " clk $end
$var wire 1 # rst $end
$var reg 8 z" a_out [7:0] $end
$var reg 8 {" b_out [7:0] $end
$var reg 32 |" c [31:0] $end
$upscope $end
$upscope $end
$scope begin COL[3] $end
$scope module PE $end
$var wire 8 }" a_in [7:0] $end
$var wire 8 ~" b_in [7:0] $end
$var wire 1 ! clear $end
$var wire 1 " clk $end
$var wire 1 # rst $end
$var reg 8 !# a_out [7:0] $end
$var reg 8 "# b_out [7:0] $end
$var reg 32 ## c [31:0] $end
$upscope $end
$upscope $end
$scope begin COL[4] $end
$scope module PE $end
$var wire 8 $# a_in [7:0] $end
$var wire 8 %# b_in [7:0] $end
$var wire 1 ! clear $end
$var wire 1 " clk $end
$var wire 1 # rst $end
$var reg 8 &# a_out [7:0] $end
$var reg 8 '# b_out [7:0] $end
$var reg 32 (# c [31:0] $end
$upscope $end
$upscope $end
$scope begin COL[5] $end
$scope module PE $end
$var wire 8 )# a_in [7:0] $end
$var wire 8 *# b_in [7:0] $end
$var wire 1 ! clear $end
$var wire 1 " clk $end
$var wire 1 # rst $end
$var reg 8 +# a_out [7:0] $end
$var reg 8 ,# b_out [7:0] $end
$var reg 32 -# c [31:0] $end
$upscope $end
$upscope $end
$scope begin COL[6] $end
$scope module PE $end
$var wire 8 .# a_in [7:0] $end
$var wire 8 /# b_in [7:0] $end
$var wire 1 ! clear $end
$var wire 1 " clk $end
$var wire 1 # rst $end
$var reg 8 0# a_out [7:0] $end
$var reg 8 1# b_out [7:0] $end
$var reg 32 2# c [31:0] $end
$upscope $end
$upscope $end
$scope begin COL[7] $end
$scope module PE $end
$var wire 8 3# a_in [7:0] $end
$var wire 8 4# b_in [7:0] $end
$var wire 1 ! clear $end
$var wire 1 " clk $end
$var wire 1 # rst $end
$var reg 8 5# a_out [7:0] $end
$var reg 8 6# b_out [7:0] $end
$var reg 32 7# c [31:0] $end
$upscope $end
$upscope $end
$upscope $end
$scope begin ROW[5] $end
$scope begin COL[0] $end
$scope module PE $end
$var wire 8 8# b_in [7:0] $end
$var wire 1 ! clear $end
$var wire 1 " clk $end
$var wire 1 # rst $end
$var wire 8 9# a_in [7:0] $end
$var reg 8 :# a_out [7:0] $end
$var reg 8 ;# b_out [7:0] $end
$var reg 32 <# c [31:0] $end
$upscope $end
$upscope $end
$scope begin COL[1] $end
$scope module PE $end
$var wire 8 =# a_in [7:0] $end
$var wire 8 ># b_in [7:0] $end
$var wire 1 ! clear $end
$var wire 1 " clk $end
$var wire 1 # rst $end
$var reg 8 ?# a_out [7:0] $end
$var reg 8 @# b_out [7:0] $end
$var reg 32 A# c [31:0] $end
$upscope $end
$upscope $end
$scope begin COL[2] $end
$scope module PE $end
$var wire 8 B# a_in [7:0] $end
$var wire 8 C# b_in [7:0] $end
$var wire 1 ! clear $end
$var wire 1 " clk $end
$var wire 1 # rst $end
$var reg 8 D# a_out [7:0] $end
$var reg 8 E# b_out [7:0] $end
$var reg 32 F# c [31:0] $end
$upscope $end
$upscope $end
$scope begin COL[3] $end
$scope module PE $end
$var wire 8 G# a_in [7:0] $end
$var wire 8 H# b_in [7:0] $end
$var wire 1 ! clear $end
$var wire 1 " clk $end
$var wire 1 # rst $end
$var reg 8 I# a_out [7:0] $end
$var reg 8 J# b_out [7:0] $end
$var reg 32 K# c [31:0] $end
$upscope $end
$upscope $end
$scope begin COL[4] $end
$scope module PE $end
$var wire 8 L# a_in [7:0] $end
$var wire 8 M# b_in [7:0] $end
$var wire 1 ! clear $end
$var wire 1 " clk $end
$var wire 1 # rst $end
$var reg 8 N# a_out [7:0] $end
$var reg 8 O# b_out [7:0] $end
$var reg 32 P# c [31:0] $end
$upscope $end
$upscope $end
$scope begin COL[5] $end
$scope module PE $end
$var wire 8 Q# a_in [7:0] $end
$var wire 8 R# b_in [7:0] $end
$var wire 1 ! clear $end
$var wire 1 " clk $end
$var wire 1 # rst $end
$var reg 8 S# a_out [7:0] $end
$var reg 8 T# b_out [7:0] $end
$var reg 32 U# c [31:0] $end
$upscope $end
$upscope $end
$scope begin COL[6] $end
$scope module PE $end
$var wire 8 V# a_in [7:0] $end
$var wire 8 W# b_in [7:0] $end
$var wire 1 ! clear $end
$var wire 1 " clk $end
$var wire 1 # rst $end
$var reg 8 X# a_out [7:0] $end
$var reg 8 Y# b_out [7:0] $end
$var reg 32 Z# c [31:0] $end
$upscope $end
$upscope $end
$scope begin COL[7] $end
$scope module PE $end
$var wire 8 [# a_in [7:0] $end
$var wire 8 \# b_in [7:0] $end
$var wire 1 ! clear $end
$var wire 1 " clk $end
$var wire 1 # rst $end
$var reg 8 ]# a_out [7:0] $end
$var reg 8 ^# b_out [7:0] $end
$var reg 32 _# c [31:0] $end
$upscope $end
$upscope $end
$upscope $end
$scope begin ROW[6] $end
$scope begin COL[0] $end
$scope module PE $end
$var wire 8 `# b_in [7:0] $end
$var wire 1 ! clear $end
$var wire 1 " clk $end
$var wire 1 # rst $end
$var wire 8 a# a_in [7:0] $end
$var reg 8 b# a_out [7:0] $end
$var reg 8 c# b_out [7:0] $end
$var reg 32 d# c [31:0] $end
$upscope $end
$upscope $end
$scope begin COL[1] $end
$scope module PE $end
$var wire 8 e# a_in [7:0] $end
$var wire 8 f# b_in [7:0] $end
$var wire 1 ! clear $end
$var wire 1 " clk $end
$var wire 1 # rst $end
$var reg 8 g# a_out [7:0] $end
$var reg 8 h# b_out [7:0] $end
$var reg 32 i# c [31:0] $end
$upscope $end
$upscope $end
$scope begin COL[2] $end
$scope module PE $end
$var wire 8 j# a_in [7:0] $end
$var wire 8 k# b_in [7:0] $end
$var wire 1 ! clear $end
$var wire 1 " clk $end
$var wire 1 # rst $end
$var reg 8 l# a_out [7:0] $end
$var reg 8 m# b_out [7:0] $end
$var reg 32 n# c [31:0] $end
$upscope $end
$upscope $end
$scope begin COL[3] $end
$scope module PE $end
$var wire 8 o# a_in [7:0] $end
$var wire 8 p# b_in [7:0] $end
$var wire 1 ! clear $end
$var wire 1 " clk $end
$var wire 1 # rst $end
$var reg 8 q# a_out [7:0] $end
$var reg 8 r# b_out [7:0] $end
$var reg 32 s# c [31:0] $end
$upscope $end
$upscope $end
$scope begin COL[4] $end
$scope module PE $end
$var wire 8 t# a_in [7:0] $end
$var wire 8 u# b_in [7:0] $end
$var wire 1 ! clear $end
$var wire 1 " clk $end
$var wire 1 # rst $end
$var reg 8 v# a_out [7:0] $end
$var reg 8 w# b_out [7:0] $end
$var reg 32 x# c [31:0] $end
$upscope $end
$upscope $end
$scope begin COL[5] $end
$scope module PE $end
$var wire 8 y# a_in [7:0] $end
$var wire 8 z# b_in [7:0] $end
$var wire 1 ! clear $end
$var wire 1 " clk $end
$var wire 1 # rst $end
$var reg 8 {# a_out [7:0] $end
$var reg 8 |# b_out [7:0] $end
$var reg 32 }# c [31:0] $end
$upscope $end
$upscope $end
$scope begin COL[6] $end
$scope module PE $end
$var wire 8 ~# a_in [7:0] $end
$var wire 8 !$ b_in [7:0] $end
$var wire 1 ! clear $end
$var wire 1 " clk $end
$var wire 1 # rst $end
$var reg 8 "$ a_out [7:0] $end
$var reg 8 #$ b_out [7:0] $end
$var reg 32 $$ c [31:0] $end
$upscope $end
$upscope $end
$scope begin COL[7] $end
$scope module PE $end
$var wire 8 %$ a_in [7:0] $end
$var wire 8 &$ b_in [7:0] $end
$var wire 1 ! clear $end
$var wire 1 " clk $end
$var wire 1 # rst $end
$var reg 8 '$ a_out [7:0] $end
$var reg 8 ($ b_out [7:0] $end
$var reg 32 )$ c [31:0] $end
$upscope $end
$upscope $end
$upscope $end
$scope begin ROW[7] $end
$scope begin COL[0] $end
$scope module PE $end
$var wire 8 *$ b_in [7:0] $end
$var wire 1 ! clear $end
$var wire 1 " clk $end
$var wire 1 # rst $end
$var wire 8 +$ a_in [7:0] $end
$var reg 8 ,$ a_out [7:0] $end
$var reg 8 -$ b_out [7:0] $end
$var reg 32 .$ c [31:0] $end
$upscope $end
$upscope $end
$scope begin COL[1] $end
$scope module PE $end
$var wire 8 /$ a_in [7:0] $end
$var wire 8 0$ b_in [7:0] $end
$var wire 1 ! clear $end
$var wire 1 " clk $end
$var wire 1 # rst $end
$var reg 8 1$ a_out [7:0] $end
$var reg 8 2$ b_out [7:0] $end
$var reg 32 3$ c [31:0] $end
$upscope $end
$upscope $end
$scope begin COL[2] $end
$scope module PE $end
$var wire 8 4$ a_in [7:0] $end
$var wire 8 5$ b_in [7:0] $end
$var wire 1 ! clear $end
$var wire 1 " clk $end
$var wire 1 # rst $end
$var reg 8 6$ a_out [7:0] $end
$var reg 8 7$ b_out [7:0] $end
$var reg 32 8$ c [31:0] $end
$upscope $end
$upscope $end
$scope begin COL[3] $end
$scope module PE $end
$var wire 8 9$ a_in [7:0] $end
$var wire 8 :$ b_in [7:0] $end
$var wire 1 ! clear $end
$var wire 1 " clk $end
$var wire 1 # rst $end
$var reg 8 ;$ a_out [7:0] $end
$var reg 8 <$ b_out [7:0] $end
$var reg 32 =$ c [31:0] $end
$upscope $end
$upscope $end
$scope begin COL[4] $end
$scope module PE $end
$var wire 8 >$ a_in [7:0] $end
$var wire 8 ?$ b_in [7:0] $end
$var wire 1 ! clear $end
$var wire 1 " clk $end
$var wire 1 # rst $end
$var reg 8 @$ a_out [7:0] $end
$var reg 8 A$ b_out [7:0] $end
$var reg 32 B$ c [31:0] $end
$upscope $end
$upscope $end
$scope begin COL[5] $end
$scope module PE $end
$var wire 8 C$ a_in [7:0] $end
$var wire 8 D$ b_in [7:0] $end
$var wire 1 ! clear $end
$var wire 1 " clk $end
$var wire 1 # rst $end
$var reg 8 E$ a_out [7:0] $end
$var reg 8 F$ b_out [7:0] $end
$var reg 32 G$ c [31:0] $end
$upscope $end
$upscope $end
$scope begin COL[6] $end
$scope module PE $end
$var wire 8 H$ a_in [7:0] $end
$var wire 8 I$ b_in [7:0] $end
$var wire 1 ! clear $end
$var wire 1 " clk $end
$var wire 1 # rst $end
$var reg 8 J$ a_out [7:0] $end
$var reg 8 K$ b_out [7:0] $end
$var reg 32 L$ c [31:0] $end
$upscope $end
$upscope $end
$scope begin COL[7] $end
$scope module PE $end
$var wire 8 M$ a_in [7:0] $end
$var wire 8 N$ b_in [7:0] $end
$var wire 1 ! clear $end
$var wire 1 " clk $end
$var wire 1 # rst $end
$var reg 8 O$ a_out [7:0] $end
$var reg 8 P$ b_out [7:0] $end
$var reg 32 Q$ c [31:0] $end
$upscope $end
$upscope $end
$upscope $end
$scope begin genblk1[0] $end
$upscope $end
$scope begin genblk1[1] $end
$upscope $end
$scope begin genblk1[2] $end
$upscope $end
$scope begin genblk1[3] $end
$upscope $end
$scope begin genblk1[4] $end
$upscope $end
$scope begin genblk1[5] $end
$upscope $end
$scope begin genblk1[6] $end
$upscope $end
$scope begin genblk1[7] $end
$upscope $end
$upscope $end
$upscope $end
$enddefinitions $end
#0
$dumpvars
b0 Q$
b0 P$
b0 O$
b0 N$
b0 M$
b0 L$
b0 K$
b0 J$
b0 I$
b0 H$
b0 G$
b0 F$
b0 E$
b0 D$
b0 C$
b0 B$
b0 A$
b0 @$
b0 ?$
b0 >$
b0 =$
b0 <$
b0 ;$
b0 :$
b0 9$
b0 8$
b0 7$
b0 6$
b0 5$
b0 4$
b0 3$
b0 2$
b0 1$
b0 0$
b0 /$
b0 .$
b0 -$
b0 ,$
b0 +$
b0 *$
b0 )$
b0 ($
b0 '$
b0 &$
b0 %$
b0 $$
b0 #$
b0 "$
b0 !$
b0 ~#
b0 }#
b0 |#
b0 {#
b0 z#
b0 y#
b0 x#
b0 w#
b0 v#
b0 u#
b0 t#
b0 s#
b0 r#
b0 q#
b0 p#
b0 o#
b0 n#
b0 m#
b0 l#
b0 k#
b0 j#
b0 i#
b0 h#
b0 g#
b0 f#
b0 e#
b0 d#
b0 c#
b0 b#
b0 a#
b0 `#
b0 _#
b0 ^#
b0 ]#
b0 \#
b0 [#
b0 Z#
b0 Y#
b0 X#
b0 W#
b0 V#
b0 U#
b0 T#
b0 S#
b0 R#
b0 Q#
b0 P#
b0 O#
b0 N#
b0 M#
b0 L#
b0 K#
b0 J#
b0 I#
b0 H#
b0 G#
b0 F#
b0 E#
b0 D#
b0 C#
b0 B#
b0 A#
b0 @#
b0 ?#
b0 >#
b0 =#
b0 <#
b0 ;#
b0 :#
b0 9#
b0 8#
b0 7#
b0 6#
b0 5#
b0 4#
b0 3#
b0 2#
b0 1#
b0 0#
b0 /#
b0 .#
b0 -#
b0 ,#
b0 +#
b0 *#
b0 )#
b0 (#
b0 '#
b0 &#
b0 %#
b0 $#
b0 ##
b0 "#
b0 !#
b0 ~"
b0 }"
b0 |"
b0 {"
b0 z"
b0 y"
b0 x"
b0 w"
b0 v"
b0 u"
b0 t"
b0 s"
b0 r"
b0 q"
b0 p"
b0 o"
b0 n"
b0 m"
b0 l"
b0 k"
b0 j"
b0 i"
b0 h"
b0 g"
b0 f"
b0 e"
b0 d"
b0 c"
b0 b"
b0 a"
b0 `"
b0 _"
b0 ^"
b0 ]"
b0 \"
b0 ["
b0 Z"
b0 Y"
b0 X"
b0 W"
b0 V"
b0 U"
b0 T"
b0 S"
b0 R"
b0 Q"
b0 P"
b0 O"
b0 N"
b0 M"
b0 L"
b0 K"
b0 J"
b0 I"
b0 H"
b0 G"
b0 F"
b0 E"
b0 D"
b0 C"
b0 B"
b0 A"
b0 @"
b0 ?"
b0 >"
b0 ="
b0 <"
b0 ;"
b0 :"
b0 9"
b0 8"
b0 7"
b0 6"
b0 5"
b0 4"
b0 3"
b0 2"
b0 1"
b0 0"
b0 /"
b0 ."
b0 -"
b0 ,"
b0 +"
b0 *"
b0 )"
b0 ("
b0 '"
b0 &"
b0 %"
b0 $"
b0 #"
b0 ""
b0 !"
b0 ~
b0 }
b0 |
b0 {
b0 z
b0 y
b0 x
b0 w
b0 v
b0 u
b0 t
b0 s
b0 r
b0 q
b0 p
b0 o
b0 n
b0 m
b0 l
b0 k
b0 j
b0 i
b0 h
b0 g
b0 f
b0 e
b0 d
b0 c
b0 b
b0 a
b0 `
b0 _
b0 ^
b0 ]
b0 \
b0 [
b0 Z
b0 Y
b0 X
b0 W
b0 V
b0 U
b0 T
b0 S
b0 R
b0 Q
b0 P
b0 O
b0 N
b0 M
b0 L
b0 K
b0 J
b0 I
b0 H
b0 G
b0 F
b0 E
b0 D
b0 C
b0 B
b0 A
b0 @
b0 ?
b0 >
b0 =
b0 <
b0 ;
b0 :
b0 9
b0 8
b0 7
b0 6
b0 5
b0 4
b0 3
b0 2
b0 1
b0 0
b0 /
b0 .
b0 -
b0 ,
bx +
bx *
bx )
bx (
b1000 '
bx &
b0 %
bx $
1#
0"
0!
$end
#5000
b1000 $
b1000 *
b1000 '
b1 %
1"
#10000
0"
#15000
b1000 $
b1000 *
b1000 '
b10 %
1"
#20000
0"
b1000 )
b1000 (
b1000 '
0#
#25000
b1000 $
b1000 *
b1000 '
b11 %
1!
1"
#30000
0"
#35000
b0 +
0!
b1000 $
b1000 *
b1000 '
b100 %
1"
#40000
0"
#45000
b1 /
b1 T
b1 .
b1 1
b1 0
b1000 $
b1000 *
b101 %
b1 +
b1 ,
b1000 (
b1 -
b11111111111111111111111111111001 )
b1000 '
1"
#50000
0"
#55000
b0 /
b0 T
b10 .
b10 1
b1 3
b1 6
b1 W
b1 |
b10 V
b10 Y
b10 X
b10 +
b0 ,
b1000 (
b10 U
b10 -
b11111111111111111111111111111010 )
b1000 $
b1000 *
b1000 '
b110 %
1"
#60000
0"
#65000
b1 !"
b1 F"
b11 ~
b11 #"
b11 ""
b10 [
b10 ^
b0 W
b0 |
b11 V
b11 Y
b1 8
b1 ;
b1 4
b1 Z
b10 3
b10 6
b10 5
b11 .
b11 1
b1000 $
b1000 *
b111 %
b11 +
b1 2
b1000 (
b11 }
b11 U
b11 -
b11111111111111111111111111111011 )
b1000 '
1"
#70000
0"
#75000
b100 .
b100 1
b0 4
b0 Z
b11 3
b11 6
b10 8
b10 ;
b1 =
b1 @
b100 V
b100 Y
b1 \
b1 $"
b11 [
b11 ^
b11 ]
b10 `
b10 c
b0 !"
b0 F"
b100 ~
b100 #"
b11 %"
b11 ("
b1 I"
b1 n"
b100 H"
b100 K"
b100 J"
b100 +
b0 2
b1000 (
b100 G"
b100 }
b100 U
b100 -
b11111111111111111111111111111100 )
b1000 $
b1000 *
b1000 '
b1000 %
1"
#80000
0"
#85000
b1 q"
b1 8#
b101 p"
b101 s"
b101 r"
b100 M"
b100 P"
b0 I"
b0 n"
b101 H"
b101 K"
b11 *"
b11 -"
b1 &"
b1 L"
b100 %"
b100 ("
b100 '"
b101 ~
b101 #"
b10 e
b10 h
b11 `
b11 c
b0 \
b0 $"
b100 [
b100 ^
b101 V
b101 Y
b1 B
b1 E
b10 =
b10 @
b1 9
b1 _
b11 8
b11 ;
b11 :
b100 3
b100 6
b101 .
b101 1
b1000 $
b1000 *
b1001 %
b101 +
b1 7
b1000 (
b101 o"
b101 G"
b101 }
b101 U
b101 -
b11111111111111111111111111111101 )
b1000 '
1"
#90000
0"
